^C:\METIS\BUILD\PROGRAMS\GPMETIS.DIR\DEBUG\CMDLINE_GPMETIS.OBJ|C:\METIS\BUILD\PROGRAMS\GPMETIS.DIR\DEBUG\GPMETIS.EXE.EMBED.MANIFEST.RES|C:\METIS\BUILD\PROGRAMS\GPMETIS.DIR\DEBUG\GPMETIS.OBJ|C:\METIS\BUILD\PROGRAMS\GPMETIS.DIR\DEBUG\IO.OBJ|C:\METIS\BUILD\PROGRAMS\GPMETIS.DIR\DEBUG\STAT.OBJ
/ERRORREPORT:PROMPT /OUT:"C:\metis\build\programs\Debug\gpmetis.exe" /INCREMENTAL /NOLOGO /LIBPATH:/home/karypis/local/lib /LIBPATH:/home/karypis/local/lib/Debug kernel32.lib user32.lib gdi32.lib winspool.lib shell32.lib ole32.lib oleaut32.lib uuid.lib comdlg32.lib advapi32.lib ..\libmetis\Debug\metis.lib /MANIFEST /ManifestFile:"gpmetis.dir\Debug\gpmetis.exe.intermediate.manifest" /MANIFESTUAC:"level='asInvoker' uiAccess='false'" /DEBUG /PDB:"C:/metis/build/programs/Debug/gpmetis.pdb" /SUBSYSTEM:CONSOLE /TLBID:1 /DYNAMICBASE /NXCOMPAT /IMPLIB:"C:/metis/build/programs/Debug/gpmetis.lib" /MACHINE:X64 gpmetis.dir\Debug\gpmetis.exe.embed.manifest.res
gpmetis.dir\Debug\gpmetis.obj
gpmetis.dir\Debug\cmdline_gpmetis.obj
gpmetis.dir\Debug\io.obj
gpmetis.dir\Debug\stat.obj  /machine:x64 /debug 
