^C:\METIS\BUILD\LIBMETIS\METIS.DIR\DEBUG\AUXAPI.OBJ|C:\METIS\BUILD\LIBMETIS\METIS.DIR\DEBUG\B64.OBJ|C:\METIS\BUILD\LIBMETIS\METIS.DIR\DEBUG\BALANCE.OBJ|C:\METIS\BUILD\LIBMETIS\METIS.DIR\DEBUG\BLAS.OBJ|C:\METIS\BUILD\LIBMETIS\METIS.DIR\DEBUG\BUCKETSORT.OBJ|C:\METIS\BUILD\LIBMETIS\METIS.DIR\DEBUG\CHECKGRAPH.OBJ|C:\METIS\BUILD\LIBMETIS\METIS.DIR\DEBUG\COARSEN.OBJ|C:\METIS\BUILD\LIBMETIS\METIS.DIR\DEBUG\COMPRESS.OBJ|C:\METIS\BUILD\LIBMETIS\METIS.DIR\DEBUG\CONTIG.OBJ|C:\METIS\BUILD\LIBMETIS\METIS.DIR\DEBUG\CSR.OBJ|C:\METIS\BUILD\LIBMETIS\METIS.DIR\DEBUG\DEBUG.OBJ|C:\METIS\BUILD\LIBMETIS\METIS.DIR\DEBUG\ERROR.OBJ|C:\METIS\BUILD\LIBMETIS\METIS.DIR\DEBUG\EVALUATE.OBJ|C:\METIS\BUILD\LIBMETIS\METIS.DIR\DEBUG\FKVKSELECT.OBJ|C:\METIS\BUILD\LIBMETIS\METIS.DIR\DEBUG\FM.OBJ|C:\METIS\BUILD\LIBMETIS\METIS.DIR\DEBUG\FORTRAN.OBJ|C:\METIS\BUILD\LIBMETIS\METIS.DIR\DEBUG\FRENAME.OBJ|C:\METIS\BUILD\LIBMETIS\METIS.DIR\DEBUG\FS.OBJ|C:\METIS\BUILD\LIBMETIS\METIS.DIR\DEBUG\GETOPT.OBJ|C:\METIS\BUILD\LIBMETIS\METIS.DIR\DEBUG\GKLIB.OBJ|C:\METIS\BUILD\LIBMETIS\METIS.DIR\DEBUG\GKREGEX.OBJ|C:\METIS\BUILD\LIBMETIS\METIS.DIR\DEBUG\GRAPH.C.OBJ|C:\METIS\BUILD\LIBMETIS\METIS.DIR\DEBUG\HTABLE.OBJ|C:\METIS\BUILD\LIBMETIS\METIS.DIR\DEBUG\INITPART.OBJ|C:\METIS\BUILD\LIBMETIS\METIS.DIR\DEBUG\IO.OBJ|C:\METIS\BUILD\LIBMETIS\METIS.DIR\DEBUG\ITEMSETS.OBJ|C:\METIS\BUILD\LIBMETIS\METIS.DIR\DEBUG\KMETIS.OBJ|C:\METIS\BUILD\LIBMETIS\METIS.DIR\DEBUG\KWAYFM.OBJ|C:\METIS\BUILD\LIBMETIS\METIS.DIR\DEBUG\KWAYREFINE.OBJ|C:\METIS\BUILD\LIBMETIS\METIS.DIR\DEBUG\MCORE.OBJ|C:\METIS\BUILD\LIBMETIS\METIS.DIR\DEBUG\MCUTIL.OBJ|C:\METIS\BUILD\LIBMETIS\METIS.DIR\DEBUG\MEMORY.OBJ|C:\METIS\BUILD\LIBMETIS\METIS.DIR\DEBUG\MESH.OBJ|C:\METIS\BUILD\LIBMETIS\METIS.DIR\DEBUG\MESHPART.OBJ|C:\METIS\BUILD\LIBMETIS\METIS.DIR\DEBUG\MINCONN.OBJ|C:\METIS\BUILD\LIBMETIS\METIS.DIR\DEBUG\MINCOVER.OBJ|C:\METIS\BUILD\LIBMETIS\METIS.DIR\DEBUG\MMD.OBJ|C:\METIS\BUILD\LIBMETIS\METIS.DIR\DEBUG\OMETIS.OBJ|C:\METIS\BUILD\LIBMETIS\METIS.DIR\DEBUG\OMP.OBJ|C:\METIS\BUILD\LIBMETIS\METIS.DIR\DEBUG\OPTIONS.OBJ|C:\METIS\BUILD\LIBMETIS\METIS.DIR\DEBUG\PARMETIS.OBJ|C:\METIS\BUILD\LIBMETIS\METIS.DIR\DEBUG\PDB.OBJ|C:\METIS\BUILD\LIBMETIS\METIS.DIR\DEBUG\PMETIS.OBJ|C:\METIS\BUILD\LIBMETIS\METIS.DIR\DEBUG\PQUEUE.OBJ|C:\METIS\BUILD\LIBMETIS\METIS.DIR\DEBUG\RANDOM.OBJ|C:\METIS\BUILD\LIBMETIS\METIS.DIR\DEBUG\REFINE.OBJ|C:\METIS\BUILD\LIBMETIS\METIS.DIR\DEBUG\RW.OBJ|C:\METIS\BUILD\LIBMETIS\METIS.DIR\DEBUG\SEPARATOR.OBJ|C:\METIS\BUILD\LIBMETIS\METIS.DIR\DEBUG\SEQ.OBJ|C:\METIS\BUILD\LIBMETIS\METIS.DIR\DEBUG\SFM.OBJ|C:\METIS\BUILD\LIBMETIS\METIS.DIR\DEBUG\SORT.OBJ|C:\METIS\BUILD\LIBMETIS\METIS.DIR\DEBUG\SREFINE.OBJ|C:\METIS\BUILD\LIBMETIS\METIS.DIR\DEBUG\STAT.OBJ|C:\METIS\BUILD\LIBMETIS\METIS.DIR\DEBUG\STRING.OBJ|C:\METIS\BUILD\LIBMETIS\METIS.DIR\DEBUG\TIMERS.OBJ|C:\METIS\BUILD\LIBMETIS\METIS.DIR\DEBUG\TIMING.OBJ|C:\METIS\BUILD\LIBMETIS\METIS.DIR\DEBUG\TOKENIZER.OBJ|C:\METIS\BUILD\LIBMETIS\METIS.DIR\DEBUG\UTIL.C.OBJ|C:\METIS\BUILD\LIBMETIS\METIS.DIR\DEBUG\WSPACE.OBJ|C:\METIS\BUILD\LIBMETIS\METIS.DIR\DEBUG\__\GKLIB\GRAPH.C.OBJ|C:\METIS\BUILD\LIBMETIS\METIS.DIR\DEBUG\__\GKLIB\UTIL.C.OBJ
C:\WINDOWS\SYSTEM32\TZRES.DLL
C:\METIS\BUILD\LIBMETIS\METIS.DIR\DEBUG\B64.OBJ
C:\METIS\BUILD\LIBMETIS\METIS.DIR\DEBUG\BLAS.OBJ
C:\METIS\BUILD\LIBMETIS\METIS.DIR\DEBUG\CSR.OBJ
C:\METIS\BUILD\LIBMETIS\METIS.DIR\DEBUG\ERROR.OBJ
C:\METIS\BUILD\LIBMETIS\METIS.DIR\DEBUG\EVALUATE.OBJ
C:\METIS\BUILD\LIBMETIS\METIS.DIR\DEBUG\FKVKSELECT.OBJ
C:\METIS\BUILD\LIBMETIS\METIS.DIR\DEBUG\FS.OBJ
C:\METIS\BUILD\LIBMETIS\METIS.DIR\DEBUG\GETOPT.OBJ
C:\METIS\BUILD\LIBMETIS\METIS.DIR\DEBUG\GKREGEX.OBJ
C:\METIS\BUILD\LIBMETIS\METIS.DIR\DEBUG\HTABLE.OBJ
C:\METIS\BUILD\LIBMETIS\METIS.DIR\DEBUG\IO.OBJ
C:\METIS\BUILD\LIBMETIS\METIS.DIR\DEBUG\ITEMSETS.OBJ
C:\METIS\BUILD\LIBMETIS\METIS.DIR\DEBUG\MCORE.OBJ
C:\METIS\BUILD\LIBMETIS\METIS.DIR\DEBUG\MEMORY.OBJ
C:\METIS\BUILD\LIBMETIS\METIS.DIR\DEBUG\OMP.OBJ
C:\METIS\BUILD\LIBMETIS\METIS.DIR\DEBUG\PDB.OBJ
C:\METIS\BUILD\LIBMETIS\METIS.DIR\DEBUG\PQUEUE.OBJ
C:\METIS\BUILD\LIBMETIS\METIS.DIR\DEBUG\RANDOM.OBJ
C:\METIS\BUILD\LIBMETIS\METIS.DIR\DEBUG\RW.OBJ
C:\METIS\BUILD\LIBMETIS\METIS.DIR\DEBUG\SEQ.OBJ
C:\METIS\BUILD\LIBMETIS\METIS.DIR\DEBUG\SORT.OBJ
C:\METIS\BUILD\LIBMETIS\METIS.DIR\DEBUG\STRING.OBJ
C:\METIS\BUILD\LIBMETIS\METIS.DIR\DEBUG\TIMERS.OBJ
C:\METIS\BUILD\LIBMETIS\METIS.DIR\DEBUG\TOKENIZER.OBJ
C:\METIS\BUILD\LIBMETIS\METIS.DIR\DEBUG\AUXAPI.OBJ
C:\METIS\BUILD\LIBMETIS\METIS.DIR\DEBUG\BALANCE.OBJ
C:\METIS\BUILD\LIBMETIS\METIS.DIR\DEBUG\BUCKETSORT.OBJ
C:\METIS\BUILD\LIBMETIS\METIS.DIR\DEBUG\CHECKGRAPH.OBJ
C:\METIS\BUILD\LIBMETIS\METIS.DIR\DEBUG\COARSEN.OBJ
C:\METIS\BUILD\LIBMETIS\METIS.DIR\DEBUG\COMPRESS.OBJ
C:\METIS\BUILD\LIBMETIS\METIS.DIR\DEBUG\CONTIG.OBJ
C:\METIS\BUILD\LIBMETIS\METIS.DIR\DEBUG\DEBUG.OBJ
C:\METIS\BUILD\LIBMETIS\METIS.DIR\DEBUG\FM.OBJ
C:\METIS\BUILD\LIBMETIS\METIS.DIR\DEBUG\FORTRAN.OBJ
C:\METIS\BUILD\LIBMETIS\METIS.DIR\DEBUG\FRENAME.OBJ
C:\METIS\BUILD\LIBMETIS\METIS.DIR\DEBUG\GKLIB.OBJ
C:\METIS\BUILD\LIBMETIS\METIS.DIR\DEBUG\INITPART.OBJ
C:\METIS\BUILD\LIBMETIS\METIS.DIR\DEBUG\KMETIS.OBJ
C:\METIS\BUILD\LIBMETIS\METIS.DIR\DEBUG\KWAYFM.OBJ
C:\METIS\BUILD\LIBMETIS\METIS.DIR\DEBUG\KWAYREFINE.OBJ
C:\METIS\BUILD\LIBMETIS\METIS.DIR\DEBUG\MCUTIL.OBJ
C:\METIS\BUILD\LIBMETIS\METIS.DIR\DEBUG\MESH.OBJ
C:\METIS\BUILD\LIBMETIS\METIS.DIR\DEBUG\MESHPART.OBJ
C:\METIS\BUILD\LIBMETIS\METIS.DIR\DEBUG\MINCONN.OBJ
C:\METIS\BUILD\LIBMETIS\METIS.DIR\DEBUG\MINCOVER.OBJ
C:\METIS\BUILD\LIBMETIS\METIS.DIR\DEBUG\MMD.OBJ
C:\METIS\BUILD\LIBMETIS\METIS.DIR\DEBUG\OMETIS.OBJ
C:\METIS\BUILD\LIBMETIS\METIS.DIR\DEBUG\OPTIONS.OBJ
C:\METIS\BUILD\LIBMETIS\METIS.DIR\DEBUG\PARMETIS.OBJ
C:\METIS\BUILD\LIBMETIS\METIS.DIR\DEBUG\PMETIS.OBJ
C:\METIS\BUILD\LIBMETIS\METIS.DIR\DEBUG\REFINE.OBJ
C:\METIS\BUILD\LIBMETIS\METIS.DIR\DEBUG\SEPARATOR.OBJ
C:\METIS\BUILD\LIBMETIS\METIS.DIR\DEBUG\SFM.OBJ
C:\METIS\BUILD\LIBMETIS\METIS.DIR\DEBUG\SREFINE.OBJ
C:\METIS\BUILD\LIBMETIS\METIS.DIR\DEBUG\STAT.OBJ
C:\METIS\BUILD\LIBMETIS\METIS.DIR\DEBUG\TIMING.OBJ
C:\METIS\BUILD\LIBMETIS\METIS.DIR\DEBUG\WSPACE.OBJ
C:\METIS\BUILD\LIBMETIS\METIS.DIR\DEBUG\__\GKLIB\GRAPH.C.OBJ
C:\METIS\BUILD\LIBMETIS\METIS.DIR\DEBUG\__\GKLIB\UTIL.C.OBJ
C:\METIS\BUILD\LIBMETIS\METIS.DIR\DEBUG\GRAPH.C.OBJ
C:\METIS\BUILD\LIBMETIS\METIS.DIR\DEBUG\UTIL.C.OBJ
C:\WINDOWS\GLOBALIZATION\SORTING\SORTDEFAULT.NLS
