^C:\METIS\PROGRAMS\GRAPHCHK.C
/c /IC:\metis\GKlib /IC:\metis\include /IC:\metis\programs\..\libmetis /Zi /nologo /W3 /WX- /Od /Ob0 /D WIN32 /D _WINDOWS /D WIN32 /D MSC /D _CRT_SECURE_NO_DEPRECATE /D USE_GKREGEX /D NDEBUG /D NDEBUG2 /D "__thread=__declspec(thread)" /D _DEBUG /D "SVNINFO=\"\"" /D "CMAKE_INTDIR=\"Debug\"" /D _MBCS /Gm- /RTC1 /MDd /GS /fp:precise /Zc:wchar_t /Zc:forScope /Fo"graphchk.dir\Debug\\" /Fd"graphchk.dir\Debug\vc100.pdb" /Gd /TC /errorReport:prompt C:\METIS\PROGRAMS\GRAPHCHK.C
^C:\METIS\PROGRAMS\IO.C
/c /IC:\metis\GKlib /IC:\metis\include /IC:\metis\programs\..\libmetis /Zi /nologo /W3 /WX- /Od /Ob0 /D WIN32 /D _WINDOWS /D WIN32 /D MSC /D _CRT_SECURE_NO_DEPRECATE /D USE_GKREGEX /D NDEBUG /D NDEBUG2 /D "__thread=__declspec(thread)" /D _DEBUG /D "SVNINFO=\"\"" /D "CMAKE_INTDIR=\"Debug\"" /D _MBCS /Gm- /RTC1 /MDd /GS /fp:precise /Zc:wchar_t /Zc:forScope /Fo"graphchk.dir\Debug\\" /Fd"graphchk.dir\Debug\vc100.pdb" /Gd /TC /errorReport:prompt C:\METIS\PROGRAMS\IO.C
