^C:\METIS\BUILD\PROGRAMS\GRAPHCHK.DIR\DEBUG\GRAPHCHK.EXE.EMBED.MANIFEST.RES|C:\METIS\BUILD\PROGRAMS\GRAPHCHK.DIR\DEBUG\GRAPHCHK.OBJ|C:\METIS\BUILD\PROGRAMS\GRAPHCHK.DIR\DEBUG\IO.OBJ
C:\PROGRAM FILES (X86)\MICROSOFT SDKS\WINDOWS\V7.0A\LIB\X64\KERNEL32.LIB
C:\PROGRAM FILES (X86)\MICROSOFT SDKS\WINDOWS\V7.0A\LIB\X64\USER32.LIB
C:\PROGRAM FILES (X86)\MICROSOFT SDKS\WINDOWS\V7.0A\LIB\X64\GDI32.LIB
C:\PROGRAM FILES (X86)\MICROSOFT SDKS\WINDOWS\V7.0A\LIB\X64\WINSPOOL.LIB
C:\PROGRAM FILES (X86)\MICROSOFT SDKS\WINDOWS\V7.0A\LIB\X64\SHELL32.LIB
C:\PROGRAM FILES (X86)\MICROSOFT SDKS\WINDOWS\V7.0A\LIB\X64\OLE32.LIB
C:\PROGRAM FILES (X86)\MICROSOFT SDKS\WINDOWS\V7.0A\LIB\X64\OLEAUT32.LIB
C:\PROGRAM FILES (X86)\MICROSOFT SDKS\WINDOWS\V7.0A\LIB\X64\UUID.LIB
C:\PROGRAM FILES (X86)\MICROSOFT SDKS\WINDOWS\V7.0A\LIB\X64\COMDLG32.LIB
C:\PROGRAM FILES (X86)\MICROSOFT SDKS\WINDOWS\V7.0A\LIB\X64\ADVAPI32.LIB
C:\METIS\BUILD\LIBMETIS\DEBUG\METIS.LIB
C:\METIS\BUILD\PROGRAMS\GRAPHCHK.DIR\DEBUG\GRAPHCHK.EXE.EMBED.MANIFEST.RES
C:\METIS\BUILD\PROGRAMS\GRAPHCHK.DIR\DEBUG\GRAPHCHK.OBJ
C:\METIS\BUILD\PROGRAMS\GRAPHCHK.DIR\DEBUG\IO.OBJ
C:\WINDOWS\GLOBALIZATION\SORTING\SORTDEFAULT.NLS
C:\PROGRAM FILES (X86)\MICROSOFT VISUAL STUDIO 10.0\VC\LIB\AMD64\MSVCRTD.LIB
C:\PROGRAM FILES (X86)\MICROSOFT VISUAL STUDIO 10.0\VC\LIB\AMD64\OLDNAMES.LIB
C:\PROGRAM FILES (X86)\MICROSOFT VISUAL STUDIO 10.0\VC\BIN\CVTRES.EXE
C:\WINDOWS\SYSTEM32\TZRES.DLL
C:\METIS\BUILD\PROGRAMS\DEBUG\GRAPHCHK.EXE
C:\WINDOWS\SYSTEM32\RSAENH.DLL
C:\METIS\BUILD\PROGRAMS\DEBUG\GRAPHCHK.PDB
C:\PROGRAM FILES (X86)\MICROSOFT VISUAL STUDIO 10.0\VC\BIN\X86_AMD64\LINK.EXE
