^C:\METIS\BUILD\PROGRAMS\GRAPHCHK.DIR\DEBUG\GRAPHCHK.EXE.EMBED.MANIFEST.RES|C:\METIS\BUILD\PROGRAMS\GRAPHCHK.DIR\DEBUG\GRAPHCHK.OBJ|C:\METIS\BUILD\PROGRAMS\GRAPHCHK.DIR\DEBUG\IO.OBJ
C:\METIS\BUILD\PROGRAMS\DEBUG\GRAPHCHK.ILK
C:\METIS\BUILD\PROGRAMS\DEBUG\GRAPHCHK.EXE
C:\METIS\BUILD\PROGRAMS\GRAPHCHK.DIR\DEBUG\GRAPHCHK.EXE.INTERMEDIATE.MANIFEST
C:\METIS\BUILD\PROGRAMS\DEBUG\GRAPHCHK.PDB
