^C:\METIS\BUILD\PROGRAMS\M2GMETIS.DIR\DEBUG\CMDLINE_M2GMETIS.OBJ|C:\METIS\BUILD\PROGRAMS\M2GMETIS.DIR\DEBUG\IO.OBJ|C:\METIS\BUILD\PROGRAMS\M2GMETIS.DIR\DEBUG\M2GMETIS.EXE.EMBED.MANIFEST.RES|C:\METIS\BUILD\PROGRAMS\M2GMETIS.DIR\DEBUG\M2GMETIS.OBJ
C:\METIS\BUILD\PROGRAMS\DEBUG\M2GMETIS.ILK
C:\METIS\BUILD\PROGRAMS\DEBUG\M2GMETIS.EXE
C:\METIS\BUILD\PROGRAMS\M2GMETIS.DIR\DEBUG\M2GMETIS.EXE.INTERMEDIATE.MANIFEST
C:\METIS\BUILD\PROGRAMS\DEBUG\M2GMETIS.PDB
