^C:\METIS\PROGRAMS\GRAPHCHK.C
/c /IC:\metis\GKlib /IC:\metis\include /IC:\metis\programs\..\libmetis /nologo /W3 /WX- /O2 /Ob2 /D WIN32 /D _WINDOWS /D WIN32 /D MSC /D _CRT_SECURE_NO_DEPRECATE /D USE_GKREGEX /D NDEBUG /D NDEBUG2 /D "__thread=__declspec(thread)" /D NDEBUG /D "SVNINFO=\"\"" /D "CMAKE_INTDIR=\"Release\"" /D _MBCS /Gm- /MD /GS /fp:precise /Zc:wchar_t /Zc:forScope /Fo"graphchk.dir\Release\\" /Fd"graphchk.dir\Release\vc100.pdb" /Gd /TC /errorReport:prompt C:\METIS\PROGRAMS\GRAPHCHK.C
^C:\METIS\PROGRAMS\IO.C
/c /IC:\metis\GKlib /IC:\metis\include /IC:\metis\programs\..\libmetis /nologo /W3 /WX- /O2 /Ob2 /D WIN32 /D _WINDOWS /D WIN32 /D MSC /D _CRT_SECURE_NO_DEPRECATE /D USE_GKREGEX /D NDEBUG /D NDEBUG2 /D "__thread=__declspec(thread)" /D NDEBUG /D "SVNINFO=\"\"" /D "CMAKE_INTDIR=\"Release\"" /D _MBCS /Gm- /MD /GS /fp:precise /Zc:wchar_t /Zc:forScope /Fo"graphchk.dir\Release\\" /Fd"graphchk.dir\Release\vc100.pdb" /Gd /TC /errorReport:prompt C:\METIS\PROGRAMS\IO.C
