^C:\METIS\PROGRAMS\CMAKELISTS.TXT
setlocal
"C:\Program Files (x86)\CMake\bin\cmake.exe" -HC:/metis -BC:/metis/build --check-stamp-file C:\metis\build\programs\CMakeFiles\generate.stamp
if %errorlevel% neq 0 goto :cmEnd
:cmEnd
endlocal & call :cmErrorLevel %errorlevel% & goto :cmDone
:cmErrorLevel
exit /b %1
:cmDone
if %errorlevel% neq 0 goto :VCEnd
